test.vcd
$date
	Sun Apr 13 12:37:01 2025
$end
$version
	Icarus Verilog
$end
$timescale
	1s
$end
$scope module test $end
$var reg 1 ! CLK $end
$var reg 32 " FLASH_ADDR [31:0] $end
$var reg 32 # FLASH_IN [31:0] $end
$var reg 1 $ FLASH_WR $end
$var reg 1 % RST $end
$scope module SoC $end
$var wire 1 ! CLK $end
$var wire 32 & FLASH_ADDR [31:0] $end
$var wire 32 ' FLASH_IN [31:0] $end
$var wire 1 $ FLASH_WR $end
$var wire 32 ( RAM_ADDR [31:0] $end
$var wire 32 ) RAM_DATA_IN [31:0] $end
$var wire 1 % RST $end
$var wire 1 * WR $end
$var wire 32 + flash_out [31:0] $end
$var wire 32 , RAM_DATA_OUT [31:0] $end
$var wire 32 - PC [31:0] $end
$var wire 32 . FLASH_ADDR_IN [31:0] $end
$scope module flash $end
$var wire 1 ! CLK $end
$var wire 32 / IN [31:0] $end
$var wire 1 $ WR $end
$var wire 32 0 ADDR [31:0] $end
$var reg 32 1 OUT [31:0] $end
$upscope $end
$scope module mux_flash_in $end
$var wire 32 2 IN1 [31:0] $end
$var wire 32 3 IN2 [31:0] $end
$var wire 32 4 IN3 [31:0] $end
$var wire 2 5 SEL [1:0] $end
$var wire 32 6 IN0 [31:0] $end
$var reg 32 7 OUT [31:0] $end
$upscope $end
$scope module processor $end
$var wire 1 ! CLK $end
$var wire 32 8 FLASH_ADDR_OUT [31:0] $end
$var wire 32 9 FLASH_INSTR_IN [31:0] $end
$var wire 32 : RAM_ADDR [31:0] $end
$var wire 32 ; RAM_DATA_IN [31:0] $end
$var wire 1 % RST $end
$var wire 1 < REG2_WR $end
$var wire 32 = REG2_OUT [31:0] $end
$var wire 1 > REG1_WR $end
$var wire 32 ? REG1_OUT [31:0] $end
$var wire 1 @ RAM_WR $end
$var wire 32 A RAM_DATA_OUT [31:0] $end
$var wire 3 B OPCODE [2:0] $end
$var wire 2 C MUX_ALU_IN_RIGHT [1:0] $end
$var wire 2 D MUX_ALU_IN_LEFT [1:0] $end
$var wire 1 E EQ $end
$var wire 16 F DATA [15:0] $end
$var wire 32 G ALU_VAR2_IN [31:0] $end
$var wire 32 H ALU_VAR1_IN [31:0] $end
$var wire 32 I ACC [31:0] $end
$var reg 32 J PC [31:0] $end
$scope module ALU_INSTANCE $end
$var wire 32 K VAR2 [31:0] $end
$var wire 32 L VAR1 [31:0] $end
$var wire 3 M ALU_OPERATION [2:0] $end
$var reg 32 N ACCUMULATOR [31:0] $end
$upscope $end
$scope module INSTRUCTION_DECODER_INSTANCE $end
$var wire 32 O INSTRUCTION [31:0] $end
$var wire 1 P RAM_RD $end
$var reg 3 Q ALU_OPERATION [2:0] $end
$var reg 16 R DATA [15:0] $end
$var reg 2 S MUX_ALU_IN_LEFT [1:0] $end
$var reg 2 T MUX_ALU_IN_RIGHT [1:0] $end
$var reg 1 @ RAM_WR $end
$var reg 1 > REG1_WR $end
$var reg 1 < REG2_WR $end
$upscope $end
$scope module MUX_REG1_IN $end
$var wire 32 U IN2 [31:0] $end
$var wire 32 V IN3 [31:0] $end
$var wire 2 W SEL [1:0] $end
$var wire 32 X IN1 [31:0] $end
$var wire 32 Y IN0 [31:0] $end
$var reg 32 Z OUT [31:0] $end
$upscope $end
$scope module MUX_REG2_IN $end
$var wire 32 [ IN2 [31:0] $end
$var wire 32 \ IN3 [31:0] $end
$var wire 2 ] SEL [1:0] $end
$var wire 32 ^ IN1 [31:0] $end
$var wire 32 _ IN0 [31:0] $end
$var reg 32 ` OUT [31:0] $end
$upscope $end
$scope module REG1 $end
$var wire 1 ! CLK $end
$var wire 32 a INPUT [31:0] $end
$var wire 1 % RST $end
$var wire 1 > WR $end
$var reg 32 b OUTPUT [31:0] $end
$upscope $end
$scope module REG2 $end
$var wire 1 ! CLK $end
$var wire 32 c INPUT [31:0] $end
$var wire 1 % RST $end
$var wire 1 < WR $end
$var reg 32 d OUTPUT [31:0] $end
$upscope $end
$upscope $end
$scope module ram $end
$var wire 32 e ADDR [31:0] $end
$var wire 1 ! CLK $end
$var wire 32 f IN [31:0] $end
$var wire 1 * WR $end
$var reg 32 g OUT [31:0] $end
$upscope $end
$upscope $end
$scope task FLASH_WRITE_INSTRUCTION $end
$var reg 32 h flash_addr [31:0] $end
$var reg 32 i flash_in [31:0] $end
$upscope $end
$upscope $end
$enddefinitions $end
$comment Show the parameter values. $end
$dumpall
$end
#0
$dumpvars
bx i
bx h
bx g
bz f
bz e
bx d
bx c
bx b
bx a
b0 `
bx _
bx ^
bx ]
b0xxxxxxxxxxxxxxxx \
bx [
b0 Z
bx Y
bx X
bx W
b0xxxxxxxxxxxxxxxx V
bx U
bx T
bx S
bx R
bx Q
zP
bx O
bx N
bx M
b0 L
b0 K
bx J
bx I
b0 H
b0 G
bx F
xE
bx D
bx C
bx B
bx A
x@
bx ?
x>
bx =
x<
bz ;
bz :
bx 9
bx 8
b0 7
bx 6
b0x 5
bz 4
bz 3
bx 2
bx 1
b0 0
bx /
b0 .
bx -
bx ,
bx +
z*
bz )
bz (
bx '
bx &
0%
x$
bx #
bx "
1!
$end
#10
0!
#20
1!
b0 "
b0 &
b0 2
b10110011110000000000000000000111 #
b10110011110000000000000000000111 '
b10110011110000000000000000000111 /
b1 5
1$
b0 h
b10110011110000000000000000000111 i
#30
0!
#40
b1 .
b1 0
b1 7
1!
b1 "
b1 &
b1 2
b11001011110000000000000000000000 #
b11001011110000000000000000000000 '
b11001011110000000000000000000000 /
b1 h
b11001011110000000000000000000000 i
#50
0!
#60
b10 .
b10 0
b10 7
1!
b10 "
b10 &
b10 2
b1011010000000000000000000111 #
b1011010000000000000000000111 '
b1011010000000000000000000111 /
b10 h
b1011010000000000000000000111 i
#70
0!
#80
b11 .
b11 0
b11 7
1!
b11 "
b11 &
b11 2
b110000110000000000000000000001 #
b110000110000000000000000000001 '
b110000110000000000000000000001 /
b11 h
b110000110000000000000000000001 i
#90
0!
#100
b100 .
b100 0
b100 7
1!
b100 "
b100 &
b100 2
b10000000110000000000000000000000 #
b10000000110000000000000000000000 '
b10000000110000000000000000000000 /
b100 h
b10000000110000000000000000000000 i
#110
0!
#120
b101 .
b101 0
b101 7
1!
b101 "
b101 &
b101 2
b11000000010000000000000000000010 #
b11000000010000000000000000000010 '
b11000000010000000000000000000010 /
b101 h
b11000000010000000000000000000010 i
#130
0!
#140
b110 .
b110 0
b110 7
1!
b110 "
b110 &
b110 2
b11100000010000000000000000000000 #
b11100000010000000000000000000000 '
b11100000010000000000000000000000 /
b110 h
b11100000010000000000000000000000 i
#150
0!
#160
b111 .
b111 0
b111 7
1!
b111 "
b111 &
b111 2
b111 h
#170
0!
#180
b1000 .
b1000 0
b1000 7
1!
b1000 "
b1000 &
b1000 2
b1000 h
#190
0!
#200
b1001 .
b1001 0
b1001 7
1!
b1001 "
b1001 &
b1001 2
b1001 h
